<?xml version="1.0" encoding="UTF-8"?>
<session version="1.0">
<refactoring comment="Copy element &apos;log4j.properties&apos; to &apos;KPLC/src/main/resources&apos;&#x0D;&#x0A;- Original project: &apos;ebiller_api&apos;&#x0D;&#x0A;- Destination element: &apos;KPLC/src/main/resources&apos;&#x0D;&#x0A;- Original element: &apos;log4j.properties&apos;" description="Copy file" destination="=KPLC/src\/main\/resources" element1="src/main/resources/log4j.properties" files="1" flags="589830" folders="0" id="org.eclipse.jdt.ui.copy" policy="org.eclipse.jdt.ui.copyResources" stamp="1582205733935" units="0" version="1.0"/>
</session>